algName,10,50,100,150,200,500
MATSuMoTo,3.5037151190000002,0.0081053516319999994,1.181257474e-07,1.181257474e-07,1.181257474e-07,1.13081855e-09
MATSuMoTo,7,7,7,7,7,7
MOCS-RS-Global,1.0640522880000001,0.2227499208,0.08182629927,0.048422037440000003,0.048422037440000003,0.01400985764
MOCS-RS-Global,7,7,7,7,7,7
MOCS-RS-Local,1.3142131930000001,1.4867789840000001e-07,8.2903568449999998e-09,4.1850256590000003e-09,1.5404708619999999e-09,4.7886317130000005e-10
MOCS-RS-Local,7,7,7,7,7,7
NSGA-III,3.3464594440000002,1.5538034030000001,0.057252633929999998,0.057252633929999998,0.057252633929999998,0.057252633929999998
NSGA-III,6,7,7,7,7,7
CMEA-ES,6.5296481049999997,3.1607288580000001,2.1144540900000002,0.1047920478,0.1047920478,0.0032278487259999999
CMEA-ES,7,7,7,7,7,7
DYCORS,2.6966010229999999,0.0021920318500000002,1.4420564300000001e-08,1.2656350629999999e-07,3.9712899990000001e-07,2.8574902439999998e-09
DYCORS,7,7,7,7,7,7
MOCS-RS-GL,1.532616666,0.014421426419999999,0.01524463232,0.01261267728,0.0016322628410000001,1.817434239e-07
MOCS-RS-GL,7,7,7,7,8,7
