algName,10,50,100,150,200,500
MATSuMoTo,2.6623125619999999,0.0089065967220000007,0.0035981896549999999,0.0035981896549999999,0.0035981896549999999,2.578459016e-05
MATSuMoTo,23,21,21,21,21,21
MOCS-RS-Global,3.3551645400000001,0.52636820390000005,0.52636820390000005,0.52636820390000005,0.5120944221,0.049568298970000001
MOCS-RS-Global,23,21,21,21,22,21
MOCS-RS-Local,2.5830130090000001,0.070461986990000003,0.01724620411,0.0035264232349999998,0.0029554110120000002,7.9719342239999997e-10
MOCS-RS-Local,21,21,21,21,21,21
NSGA-III,3.442426819,2.2528834500000001,0.71233261010000004,0.71233261010000004,0.71233261010000004,0.061809831799999999
NSGA-III,23,23,21,21,21,21
CMEA-ES,4.4092349320000004,2.954798024,0.46387896169999998,0.46387896169999998,0.37761034329999998,0.31185410190000001
CMEA-ES,23,23,21,21,22,21
DYCORS,1.609622119,0.017767334959999999,0.032190189360000003,0.0088424096749999993,0.018739744079999999,0.00035397721999999999
DYCORS,23,21,21,21,21,21
MOCS-RS-GL,2.8445165060000002,0.44113719680000002,0.040279574059999997,0.00019169181220000001,0.0001796376139,6.3731858960000001e-05
MOCS-RS-GL,23,22,22,21,21,21
