algName,10,50,100,150,200,500
MATSuMoTo,828.26524879999999,181.725675,140.26087509999999,117.3920483,91.853837900000002,78.972874289999993
MATSuMoTo,15,15,15,15,15,15
MOCS-RS-Global,570.38782690000005,270.81872629999998,174.43668270000001,167.1111119,142.81780900000001,113.2075531
MOCS-RS-Global,15,15,15,15,15,15
MOCS-RS-Local,581.18573330000004,246.9736379,201.27143330000001,153.87705750000001,149.9544654,121.3491207
MOCS-RS-Local,15,15,15,15,15,15
NSGA-III,1029.414573,470.72111899999999,470.72111899999999,470.72111899999999,391.77165209999998,205.68121690000001
NSGA-III,15,15,15,15,15,15
CMEA-ES,1839.058184,881.81807300000003,714.75429970000005,714.75429970000005,460.02080419999999,199.58987160000001
CMEA-ES,15,15,15,15,15,15
DYCORS,698.16625109999995,218.85405840000001,207.72432620000001,93.538862080000001,123.2454163,65.111634359999996
DYCORS,15,15,15,15,15,15
MOCS-RS-GL,504.91757530000001,202.2854457,117.9610753,305.56785980000001,161.88489379999999,69.527079900000004
MOCS-RS-GL,15,15,15,15,15,15
