algName,10,50,100,150,200,500
MATSuMoTo,14276.183889505834,53.656974322776669,20.245611149863336,13.116454675510003,7.0493994343499997,1.7534277991818334
MOCS-RS-Global,8089.2676394170012,233.05955788363335,123.69049826279999,92.477386052949981,52.341957771116668,28.919046823616668
MOCS-RS-Local,8139.3265120140331,126.28494217158999,69.082723834653336,51.670152716321667,38.586544899644501,18.160331614645205
NSGA-III,12797.457926402667,4389.2008365872334,2094.797195410617,1843.42072435045,895.71182132906654,355.86456337846676
CMEA-ES,58197.136539253828,18695.185977265952,8262.6512095826329,1582.8605784822337,309.44159774846668,53.03414872712667
DYCORS,8575.3385289263333,24.064866330983335,13.98613411865,5.1080572141883334,3.7537999801019994,2.4843936593550002
MOCS-RS-GL,3527.1943361381668,132.70203882881668,27.730581359097666,16.153803996171167,9.6954342795948349,4.9863545193574996
