algName,10,50,100,150,200,500
MATSuMoTo,40603677.533472434,2512251.2028943649,366537.10582887789,122148.90691568726,38040.246783464812,3479.2116244026038
MOCS-RS-Global,30661009.644777246,6327383.2356057148,4333645.6986224791,3783538.9956054622,3392780.6122751036,1991196.6464152816
MOCS-RS-Local,40788694.027467459,3795459.2694664625,2023968.1206975183,1451785.1060862138,1004963.8101750392,296073.45773674088
NSGA-III,26054922.040625643,13525755.868801048,8107374.3721478237,7761461.7181075616,6638617.2766483603,2656445.287993643
CMEA-ES,174815462.2097919,28350938.182266958,23629647.725490898,17172545.649308998,13819729.938812638,4160648.3476062389
DYCORS,32835227.638187669,1871590.2317344672,90836.572737823575,11836.370462807778,4708.9951153773818,2368.8264863651589
MOCS-RS-GL,17717264.353411078,5950745.2745497078,5426788.9569798075,4204723.3929254832,3148026.4709237446,2811501.2405376649
